%YAML 1.1
%TAG !u! tag:unity3d.com,2011:
--- !u!114 &11400000
MonoBehaviour:
  m_ObjectHideFlags: 0
  m_CorrespondingSourceObject: {fileID: 0}
  m_PrefabInstance: {fileID: 0}
  m_PrefabAsset: {fileID: 0}
  m_GameObject: {fileID: 0}
  m_Enabled: 1
  m_EditorHideFlags: 0
  m_Script: {fileID: 11500000, guid: e34fecf25d99d3a4b9217cd5eec77734, type: 3}
  m_Name: Level1
  m_EditorClassIdentifier: 
  isEndLessLevel: 0
  clients:
  - {fileID: 11400000, guid: a9aca6181df9b9045804777951ecadd1, type: 2}
  - {fileID: 11400000, guid: b062fbcaeae0ca444937e7b3541461fb, type: 2}
  - {fileID: 11400000, guid: 2c8ec778c692c234fa17e3ba82a7ae17, type: 2}
  - {fileID: 11400000, guid: b779a2d1ba68a994e9e266c70551aa12, type: 2}
  tableClientsPerLevel: 01000000010000000100000001000000
