%YAML 1.1
%TAG !u! tag:unity3d.com,2011:
--- !u!114 &11400000
MonoBehaviour:
  m_ObjectHideFlags: 0
  m_CorrespondingSourceObject: {fileID: 0}
  m_PrefabInstance: {fileID: 0}
  m_PrefabAsset: {fileID: 0}
  m_GameObject: {fileID: 0}
  m_Enabled: 1
  m_EditorHideFlags: 0
  m_Script: {fileID: 11500000, guid: 958633d1bde5b9849bacb9b5ea7c5f80, type: 3}
  m_Name: Scores
  m_EditorClassIdentifier: 
  simpleClient: 50
  sportClient: 75
  crazyClient: 100
  alienClinet: 150
  collectMug: 100
  collectTip: 500
  levelComplete: 1000
  bonusLevel: 3000
