%YAML 1.1
%TAG !u! tag:unity3d.com,2011:
--- !u!78 &1
TagManager:
  serializedVersion: 2
  tags:
  - Barmen
  - Client
  layers:
  - Default
  - TransparentFX
  - Ignore Raycast
  - 
  - Water
  - UI
  - 
  - 
  - Client
  - Beer
  - Barrels
  - Barmen
  - Money
  - 
  - 
  - 
  - 
  - 
  - 
  - 
  - 
  - 
  - 
  - 
  - 
  - 
  - 
  - 
  - 
  - 
  - 
  - 
  m_SortingLayers:
  - name: Default
    uniqueID: 0
    locked: 0
  - name: Tips
    uniqueID: 3383041763
    locked: 0
  - name: Guest
    uniqueID: 4118400853
    locked: 0
  - name: Beer
    uniqueID: 1583004169
    locked: 0
  - name: Barrel
    uniqueID: 4122124343
    locked: 0
  - name: Barmren
    uniqueID: 2195250043
    locked: 0
  - name: BeerTable
    uniqueID: 208809841
    locked: 0
